{
	"textures":"com.badlogic.gdx.graphics.Texture",
	"texture_atlas":"com.badlogic.gdx.graphics.g2d.TextureAtlas",
	"skins":"com.badlogic.gdx.scenes.scene2d.ui.Skin",
	"i18n":"com.badlogic.gdx.utils.I18NBundle"
}